…
## Step 2. Declare study population

``` r
study_population <-
  eval(as.call(c(list(declare_population), study_1$pop)))

set.seed(872312)
example_pop <- study_population()

example_pop %>% 
  dplyr::sample_n(n()) 
#> # A tibble: 1,000 × 75
#>     name type  known hidden links      service_use loc_1 loc_2 loc_3 loc_4 loc_5
#>    <int> <chr> <int>  <int> <chr>            <int> <int> <int> <int> <int> <int>
#>  1   583 00        0      0 215;310;6…           0     0     0     0     0     0
#>  2   140 00        0      0 19;53;437…           1     0     0     0     0     0
#>  3   670 10        1      0 1;90;103;…           0     0     0     0     0     0
#>  4   218 00        0      0 102;280;8…           1     0     0     0     0     0
#>  5    97 00        0      0 139;198;2…           0     0     0     1     0     0
#>  6    99 00        0      0 16;95;244…           0     0     1     0     0     0
#>  7   116 00        0      0 62;88;127…           1     0     0     0     0     0
#>  8   899 10        1      0 168;191;4…           1     0     0     1     0     0
#>  9   753 10        1      0 40;288;41…           1     0     0     0     0     0
#> 10   845 10        1      0 304;448;5…           1     0     0     0     0     0
#> # … with 990 more rows, and 64 more variables: loc_6 <int>, loc_7 <int>,
#> #   loc_8 <int>, loc_9 <int>, loc_10 <int>, known_2 <int>, known_3 <int>,
#> #   n_visible_out <dbl>, known_visible_out <dbl>, hidden_visible_out <dbl>,
#> #   type_00_visible_out <dbl>, type_01_visible_out <dbl>,
#> #   type_10_visible_out <dbl>, type_11_visible_out <dbl>,
#> #   service_use_visible_out <dbl>, loc_1_visible_out <dbl>,
#> #   loc_2_visible_out <dbl>, loc_3_visible_out <dbl>, …
```
…
The sampling procedures are additive in a sense that each procedure
appends several columns relevant to the sampling procedure and
particular draw based on population simulation, but does not change the
study population data frame (unless you specify
`drop_nonsampled = TRUE`).

``` r
study_sample_rds <- 
  eval(as.call(c(list(declare_sampling), study_1$sample$rds)))

set.seed(872312)
draw_data(study_population + study_sample_rds) %>%  
  dplyr::sample_n(n()) 
#> # A tibble: 1,000 × 84
#>     name type  known hidden links      service_use loc_1 loc_2 loc_3 loc_4 loc_5
#>    <int> <chr> <int>  <int> <chr>            <int> <int> <int> <int> <int> <int>
#>  1     6 00        0      0 207;243;3…           0     0     0     0     0     0
#>  2   100 00        0      0 253;364;5…           1     0     0     0     0     0
#>  3   502 00        0      0 59;183;19…           0     0     0     0     0     0
#>  4   741 10        1      0 178;256;3…           0     0     0     0     0     0
#>  5   971 11        1      1 16;46;75;…           0     0     1     0     0     0
#>  6   102 00        0      0 56;63;78;…           0     0     0     0     0     0
#>  7   204 00        0      0 34;85;219…           0     0     0     0     0     0
#>  8   764 10        1      0 215;250;6…           1     0     0     0     1     0
#>  9   193 00        0      0 10;20;208…           1     0     1     0     0     0
#> 10   523 00        0      0 1;176;205…           1     0     0     0     0     0
#> # … with 990 more rows, and 73 more variables: loc_6 <int>, loc_7 <int>,
#> #   loc_8 <int>, loc_9 <int>, loc_10 <int>, known_2 <int>, known_3 <int>,
#> #   n_visible_out <dbl>, known_visible_out <dbl>, hidden_visible_out <dbl>,
#> #   type_00_visible_out <dbl>, type_01_visible_out <dbl>,
#> #   type_10_visible_out <dbl>, type_11_visible_out <dbl>,
#> #   service_use_visible_out <dbl>, loc_1_visible_out <dbl>,
#> #   loc_2_visible_out <dbl>, loc_3_visible_out <dbl>, …
```

``` r
study_sample_pps <- 
  eval(as.call(c(list(declare_sampling), study_1$sample$pps)))

set.seed(872312)
draw_data(study_population + study_sample_rds + study_sample_pps) %>% 
  dplyr::sample_n(n()) 
#> # A tibble: 1,000 × 92
#>     name type  known hidden links      service_use loc_1 loc_2 loc_3 loc_4 loc_5
#>    <int> <chr> <int>  <int> <chr>            <int> <int> <int> <int> <int> <int>
#>  1   171 00        0      0 216;217;5…           0     0     0     0     0     0
#>  2   214 00        0      0 29;114;12…           0     0     1     0     0     0
#>  3   589 00        0      0 36;845;858           0     0     0     0     0     0
#>  4   561 00        0      0 10;187;29…           0     0     0     0     0     0
#>  5   909 01        0      1 60;75;95;…           0     0     0     0     1     0
#>  6   682 10        1      0 55;157;16…           1     0     0     0     0     0
#>  7   421 00        0      0 83;268;44…           1     0     0     0     0     0
#>  8   347 00        0      0 315;337;3…           0     0     0     0     0     0
#>  9   595 00        0      0 43;48;50;…           1     0     0     0     0     0
#> 10   847 10        1      0 35;77;136…           0     0     0     0     0     0
#> # … with 990 more rows, and 81 more variables: loc_6 <int>, loc_7 <int>,
#> #   loc_8 <int>, loc_9 <int>, loc_10 <int>, known_2 <int>, known_3 <int>,
#> #   n_visible_out <dbl>, known_visible_out <dbl>, hidden_visible_out <dbl>,
#> #   type_00_visible_out <dbl>, type_01_visible_out <dbl>,
#> #   type_10_visible_out <dbl>, type_11_visible_out <dbl>,
#> #   service_use_visible_out <dbl>, loc_1_visible_out <dbl>,
#> #   loc_2_visible_out <dbl>, loc_3_visible_out <dbl>, …
```

``` r
study_sample_tls <- 
  eval(as.call(c(list(declare_sampling), study_1$sample$tls)))

set.seed(872312)
draw_data(study_population + 
            study_sample_rds + study_sample_pps + study_sample_tls) %>% 
  dplyr::sample_n(n()) 
#> # A tibble: 1,000 × 97
#>     name type  known hidden links      service_use loc_1 loc_2 loc_3 loc_4 loc_5
#>    <int> <chr> <int>  <int> <chr>            <int> <int> <int> <int> <int> <int>
#>  1   744 10        1      0 38;81;95;…           0     0     0     0     0     0
#>  2   574 00        0      0 93;120;19…           0     0     0     0     0     0
#>  3   278 00        0      0 182;226;3…           1     0     0     0     0     0
#>  4   798 10        1      0 10;408;44…           0     0     0     0     0     0
#>  5   318 00        0      0 65;98;133…           0     0     0     0     0     0
#>  6   526 00        0      0 181;267;2…           0     0     0     0     0     0
#>  7   512 00        0      0 47;405;72…           0     1     0     0     0     0
#>  8   682 10        1      0 55;157;16…           1     0     0     0     0     0
#>  9   556 00        0      0 362;413;5…           1     0     0     0     0     0
#> 10   656 10        1      0 12;464;46…           1     0     0     0     0     0
#> # … with 990 more rows, and 86 more variables: loc_6 <int>, loc_7 <int>,
#> #   loc_8 <int>, loc_9 <int>, loc_10 <int>, known_2 <int>, known_3 <int>,
#> #   n_visible_out <dbl>, known_visible_out <dbl>, hidden_visible_out <dbl>,
#> #   type_00_visible_out <dbl>, type_01_visible_out <dbl>,
#> #   type_10_visible_out <dbl>, type_11_visible_out <dbl>,
#> #   service_use_visible_out <dbl>, loc_1_visible_out <dbl>,
#> #   loc_2_visible_out <dbl>, loc_3_visible_out <dbl>, …
```
…
## Step 6. Declare full study

``` r
study1 <- 
  study_population +
  study_sample_rds + study_sample_pps + study_sample_tls +
  study_estimands +
  est_sspse + est_chords + est_multi +
  est_nsum_pps + est_ht_pps +
  est_nsum_tls + est_ht_tls + est_recap_tls +
  est_recap_rds_pps + est_recap_rds_tls

# can draw one of the samples
study1$study_sample_rds(study1$study_population())
#> # A tibble: 1,000 × 84
#>     name type  known hidden links      service_use loc_1 loc_2 loc_3 loc_4 loc_5
#>    <int> <chr> <int>  <int> <chr>            <int> <int> <int> <int> <int> <int>
#>  1     1 00        0      0 11;136;41…           0     0     0     0     0     1
#>  2     2 00        0      0 88;181;24…           0     0     0     1     0     0
#>  3     3 00        0      0 41;82;260…           1     0     0     0     0     0
#>  4     4 00        0      0 24;212;61…           0     0     0     0     0     0
#>  5     5 00        0      0 43;69;72;…           0     1     0     0     0     0
#>  6     6 00        0      0 53;561;60…           1     0     0     0     1     0
#>  7     7 00        0      0 101;177;2…           0     0     0     0     0     0
#>  8     8 00        0      0 11;157;33…           0     0     0     0     0     1
#>  9     9 00        0      0 14;311;35…           0     0     0     0     0     0
#> 10    10 00        0      0 30;161;21…           0     0     0     0     0     1
#> # … with 990 more rows, and 73 more variables: loc_6 <int>, loc_7 <int>,
#> #   loc_8 <int>, loc_9 <int>, loc_10 <int>, known_2 <int>, known_3 <int>,
#> #   n_visible_out <dbl>, known_visible_out <dbl>, hidden_visible_out <dbl>,
#> #   type_00_visible_out <dbl>, type_01_visible_out <dbl>,
#> #   type_10_visible_out <dbl>, type_11_visible_out <dbl>,
#> #   service_use_visible_out <dbl>, loc_1_visible_out <dbl>,
#> #   loc_2_visible_out <dbl>, loc_3_visible_out <dbl>, …
…
