An R package for diagnosis and meta-analysis of hard-to-reach population measurement studies • hiddenmeta
…
Step 2. Declare study population

study_population <-
  eval(as.call(c(list(declare_population), study_1$pop)))

set.seed(19872312)
( example_pop <- study_population() )
#> # A tibble: 2,000 x 51
#>     name type  known hidden links    service_use loc_1 loc_2 loc_3 loc_4 known_2
#>    <int> <chr> <int>  <int> <chr>          <int> <int> <int> <int> <int>   <int>
#>  1     1 00        0      0 166;107…           0     0     0     0     0       0
#>  2     2 00        0      0 84;199;…           0     0     0     0     0       0
#>  3     3 00        0      0 143;167…           1     1     0     0     0       0
#>  4     4 00        0      0 272;300…           0     1     0     0     1       0
#>  5     5 00        0      0 29;536;…           0     0     1     0     0       0
#>  6     6 00        0      0 745;103…           1     0     1     0     0       0
#>  7     7 00        0      0 66;933;…           0     0     0     0     0       0
#>  8     8 00        0      0 526;107…           1     0     0     0     0       0
#>  9     9 00        0      0 111;1078           0     0     0     0     0       0
#> 10    10 00        0      0 377;1992           0     0     0     0     1       0
#> # … with 1,990 more rows, and 40 more variables: known_3 <int>,
#> #   n_visible_out <dbl>, known_visible_out <dbl>, hidden_visible_out <dbl>,
#> #   type_00_visible_out <dbl>, type_01_visible_out <dbl>,
#> #   type_10_visible_out <dbl>, type_11_visible_out <dbl>,
#> #   service_use_visible_out <dbl>, loc_1_visible_out <dbl>,
#> #   loc_2_visible_out <dbl>, loc_3_visible_out <dbl>, loc_4_visible_out <dbl>,
#> #   known_2_visible_out <dbl>, known_3_visible_out <dbl>,
#> #   known_visible_in <dbl>, hidden_visible_in <dbl>, type_00_visible_in <dbl>,
#> #   type_01_visible_in <dbl>, type_10_visible_in <dbl>,
…
Step 3. Declare all relevant study sampling procedures

The sampling procedures are additive in a sense that each procedure appends several columns relevant to the sampling procedure and particular draw based on population simulation, but does not change the study population data frame (unless you specify drop_nonsampled = TRUE).

study_sample_rds <- 
  eval(as.call(c(list(declare_sampling), study_1$sample$rds)))

set.seed(19872312)
draw_data(study_population + study_sample_rds)
#> # A tibble: 2,000 x 60
#>     name type  known hidden links    service_use loc_1 loc_2 loc_3 loc_4 known_2
#>    <int> <chr> <int>  <int> <chr>          <int> <int> <int> <int> <int>   <int>
#>  1     1 00        0      0 166;107…           0     0     0     0     0       0
#>  2     2 00        0      0 84;199;…           0     0     0     0     0       0
#>  3     3 00        0      0 143;167…           1     1     0     0     0       0
#>  4     4 00        0      0 272;300…           0     1     0     0     1       0
#>  5     5 00        0      0 29;536;…           0     0     1     0     0       0
#>  6     6 00        0      0 745;103…           1     0     1     0     0       0
#>  7     7 00        0      0 66;933;…           0     0     0     0     0       0
#>  8     8 00        0      0 526;107…           1     0     0     0     0       0
#>  9     9 00        0      0 111;1078           0     0     0     0     0       0
#> 10    10 00        0      0 377;1992           0     0     0     0     1       0
#> # … with 1,990 more rows, and 49 more variables: known_3 <int>,
#> #   n_visible_out <dbl>, known_visible_out <dbl>, hidden_visible_out <dbl>,
#> #   type_00_visible_out <dbl>, type_01_visible_out <dbl>,
#> #   type_10_visible_out <dbl>, type_11_visible_out <dbl>,
#> #   service_use_visible_out <dbl>, loc_1_visible_out <dbl>,
#> #   loc_2_visible_out <dbl>, loc_3_visible_out <dbl>, loc_4_visible_out <dbl>,
#> #   known_2_visible_out <dbl>, known_3_visible_out <dbl>,
#> #   known_visible_in <dbl>, hidden_visible_in <dbl>, type_00_visible_in <dbl>,
#> #   type_01_visible_in <dbl>, type_10_visible_in <dbl>,
…
study_sample_pps <- 
  eval(as.call(c(list(declare_sampling), study_1$sample$pps)))

set.seed(19872312)
draw_data(study_population + study_sample_rds + study_sample_pps)
#> # A tibble: 2,000 x 68
#>     name type  known hidden links    service_use loc_1 loc_2 loc_3 loc_4 known_2
#>    <int> <chr> <int>  <int> <chr>          <int> <int> <int> <int> <int>   <int>
#>  1     1 00        0      0 166;107…           0     0     0     0     0       0
#>  2     2 00        0      0 84;199;…           0     0     0     0     0       0
#>  3     3 00        0      0 143;167…           1     1     0     0     0       0
#>  4     4 00        0      0 272;300…           0     1     0     0     1       0
#>  5     5 00        0      0 29;536;…           0     0     1     0     0       0
#>  6     6 00        0      0 745;103…           1     0     1     0     0       0
#>  7     7 00        0      0 66;933;…           0     0     0     0     0       0
#>  8     8 00        0      0 526;107…           1     0     0     0     0       0
#>  9     9 00        0      0 111;1078           0     0     0     0     0       0
#> 10    10 00        0      0 377;1992           0     0     0     0     1       0
#> # … with 1,990 more rows, and 57 more variables: known_3 <int>,
#> #   n_visible_out <dbl>, known_visible_out <dbl>, hidden_visible_out <dbl>,
#> #   type_00_visible_out <dbl>, type_01_visible_out <dbl>,
#> #   type_10_visible_out <dbl>, type_11_visible_out <dbl>,
#> #   service_use_visible_out <dbl>, loc_1_visible_out <dbl>,
#> #   loc_2_visible_out <dbl>, loc_3_visible_out <dbl>, loc_4_visible_out <dbl>,
#> #   known_2_visible_out <dbl>, known_3_visible_out <dbl>,
#> #   known_visible_in <dbl>, hidden_visible_in <dbl>, type_00_visible_in <dbl>,
#> #   type_01_visible_in <dbl>, type_10_visible_in <dbl>,
…
study_sample_tls <- 
  eval(as.call(c(list(declare_sampling), study_1$sample$tls)))

set.seed(19872312)
draw_data(study_population + 
            study_sample_rds + study_sample_pps + study_sample_tls)
#> # A tibble: 2,000 x 73
#>     name type  known hidden links    service_use loc_1 loc_2 loc_3 loc_4 known_2
#>    <int> <chr> <int>  <int> <chr>          <int> <int> <int> <int> <int>   <int>
#>  1     1 00        0      0 166;107…           0     0     0     0     0       0
#>  2     2 00        0      0 84;199;…           0     0     0     0     0       0
#>  3     3 00        0      0 143;167…           1     1     0     0     0       0
#>  4     4 00        0      0 272;300…           0     1     0     0     1       0
#>  5     5 00        0      0 29;536;…           0     0     1     0     0       0
#>  6     6 00        0      0 745;103…           1     0     1     0     0       0
#>  7     7 00        0      0 66;933;…           0     0     0     0     0       0
#>  8     8 00        0      0 526;107…           1     0     0     0     0       0
#>  9     9 00        0      0 111;1078           0     0     0     0     0       0
#> 10    10 00        0      0 377;1992           0     0     0     0     1       0
#> # … with 1,990 more rows, and 62 more variables: known_3 <int>,
#> #   n_visible_out <dbl>, known_visible_out <dbl>, hidden_visible_out <dbl>,
#> #   type_00_visible_out <dbl>, type_01_visible_out <dbl>,
#> #   type_10_visible_out <dbl>, type_11_visible_out <dbl>,
#> #   service_use_visible_out <dbl>, loc_1_visible_out <dbl>,
#> #   loc_2_visible_out <dbl>, loc_3_visible_out <dbl>, loc_4_visible_out <dbl>,
#> #   known_2_visible_out <dbl>, known_3_visible_out <dbl>,
#> #   known_visible_in <dbl>, hidden_visible_in <dbl>, type_00_visible_in <dbl>,
#> #   type_01_visible_in <dbl>, type_10_visible_in <dbl>,
…
Step 6. Declare full study

study1 <- 
  study_population +
  study_sample_rds + study_sample_pps + study_sample_tls +
  study_estimands +
  est_sspse + est_chords + est_multi +
  est_ht_tls + est_ht_pps +
  est_nsum_tls + est_nsum_pps +
  est_recap + est_recap2

# can draw one of the samples
study1$study_sample_rds(study1$study_population())
#> # A tibble: 2,000 x 60
#>     name type  known hidden links    service_use loc_1 loc_2 loc_3 loc_4 known_2
#>    <int> <chr> <int>  <int> <chr>          <int> <int> <int> <int> <int>   <int>
#>  1     1 00        0      0 276;765…           0     0     0     0     0       1
#>  2     2 00        0      0 496;891…           1     0     0     0     0       0
#>  3     3 00        0      0 691;1458           0     0     0     0     0       0
#>  4     4 00        0      0 69;1068…           0     0     0     0     0       0
#>  5     5 00        0      0 713;914…           1     0     0     0     0       0
#>  6     6 00        0      0 313                0     0     0     0     0       1
#>  7     7 00        0      0 253;379…           0     0     0     0     0       0
#>  8     8 00        0      0 795;1021           0     0     0     0     0       0
#>  9     9 00        0      0 286;417…           0     0     0     1     0       0
#> 10    10 00        0      0 42;232;…           0     0     0     0     0       0
#> # … with 1,990 more rows, and 49 more variables: known_3 <int>,
#> #   n_visible_out <dbl>, known_visible_out <dbl>, hidden_visible_out <dbl>,
#> #   type_00_visible_out <dbl>, type_01_visible_out <dbl>,
#> #   type_10_visible_out <dbl>, type_11_visible_out <dbl>,
#> #   service_use_visible_out <dbl>, loc_1_visible_out <dbl>,
#> #   loc_2_visible_out <dbl>, loc_3_visible_out <dbl>, loc_4_visible_out <dbl>,
#> #   known_2_visible_out <dbl>, known_3_visible_out <dbl>,
#> #   known_visible_in <dbl>, hidden_visible_in <dbl>, type_00_visible_in <dbl>,
#> #   type_01_visible_in <dbl>, type_10_visible_in <dbl>,
…
