Reading study parameters with hiddenmeta • hiddenmeta
…
multi_simulations <- readRDS(here::here("vignettes/multi_sim_real.rds"))

diagnose_design(simulations_df = multi_simulations, 
                diagnosands = study_diagnosands) %>% 
  reshape_diagnosis(digits = 2) %>%
  dplyr::select(-'Design') %>%
  dplyr::filter(`Mean Estimate` != "NA") %>% 
  DT::datatable(options = list(scrollX = TRUE, pageLength = 15))

Generate required data

multi_study_data <- readRDS(here::here("vignettes/multi_sim_data_draw.rds"))

get_required_data(multi_study_data)
#> # A tibble: 27 × 10
#>    variable           label ff_brazil umass_tunisia stanford_brazil jhu_pakistan
#>    <chr>              <chr> <chr>     <chr>         <chr>           <chr>       
#>  1 name               Resp… X         "X"           "X"             X           
#>  2 knownX             Know… X         "X"           "X"             X           
#>  3 knownX_visible_out Know… X         "X"           "X"             X           
#>  4 knownX_visible_in  Know… X         "X"           "X"             X           
#>  5 hidden             Hidd… X         "X"           "X"             X           
#>  6 hidden_visible_out Know… X         "X"           "X"             X           
#>  7 hidden_visible_in  Know… X         "X"           "X"             X           
#>  8 rds                RDS:… X         ""            ""              X           
#>  9 rds_from           RDS:… X         ""            ""              X           
#> 10 rds_t              RDS:… X         ""            ""              X           
#> # … with 17 more rows, and 4 more variables: johnjay_costarica <chr>,
#> #   johnjay_tanzania <chr>, norc_marocco <chr>, rti_usa <chr>
…
